// Jest Snapshot v1, https://goo.gl/fbAQLP

exports[`Hint with direction false matches the snapshot 1`] = `
<div
  className="Hint Hint--horizontal some-class"
>
  <div
    className="Hint__dot"
  />
  <div
    className="Hint__dot"
  />
  <div
    className="Hint__dot"
  />
</div>
`;

exports[`Hint with direction true matches the snapshot 1`] = `
<div
  className="Hint Hint--vertical some-class"
>
  <div
    className="Hint__dot"
  />
  <div
    className="Hint__dot"
  />
  <div
    className="Hint__dot"
  />
</div>
`;
