// Jest Snapshot v1, https://goo.gl/fbAQLP

exports[`Head with title some title matches the snapshot 1`] = `
<head>
  <title>
    some title
  </title>
  <meta
    content="text/html; charset=UTF-8"
    httpEquiv="Content-Type"
  />
  <meta
    content="width=device-width, initial-scale=1, maximum-scale=1, user-scalable=no"
    name="viewport"
  />
  <meta
    content="IE=edge,chrome=1"
    httpEquiv="X-UA-Compatible"
  />
  <meta
    content="yes"
    name="apple-mobile-web-app-capable"
  />
  <meta
    content="yes"
    name="apple-touch-fullscreen"
  />
  <meta
    content="yes"
    name="mobile-web-app-capable"
  />
  <link
    href="../../bundle.css"
    rel="stylesheet"
  />
  <link
    href="../../manifest.json"
    rel="manifest"
  />
</head>
`;
