// Jest Snapshot v1, https://goo.gl/fbAQLP

exports[`GalleryFilmroll test set 0 matches the snapshot 1`] = `
<section
  className="GalleryFilmroll test-class"
>
  <div
    className="GalleryFilmroll__navigation"
  >
    <a
      className="GalleryFilmroll__previousLink"
      href="../previous-id/image.html"
    >
      <Triangle
        direction="left"
      />
    </a>
    <a
      className="GalleryFilmroll__nextLink"
      href="../next-id/image.html"
    >
      <Triangle
        direction="right"
      />
    </a>
    <a
      className="GalleryFilmroll__galleryLink"
      href="../../gallery.html"
    >
      <Triangle
        direction="up"
      />
    </a>
  </div>
  <div
    className="GalleryFilmroll__images"
  >
    <ImageThumb
      active={false}
      image={
        Object {
          "created": 2019-12-10T12:00:00.000Z,
          "filename": "some-other-image.jpg",
          "format": "png",
          "gallery": Object {
            "id": "8af7b7bf167ff1219db564a03d9c16d9590d7b86259e2844dfd9a04bd3a039ac",
          },
          "height": 1080,
          "id": "previous-id",
          "updated": 2019-12-12T12:00:00.000Z,
          "width": 1920,
        }
      }
      key="previous-id"
    />
    <ImageThumb
      active={true}
      image={
        Object {
          "created": 2019-10-10T12:00:00.000Z,
          "filename": "some-image.png",
          "format": "png",
          "gallery": Object {
            "id": "8af7b7bf167ff1219db564a03d9c16d9590d7b86259e2844dfd9a04bd3a039ac",
          },
          "height": 600,
          "id": "e01acebbe41fad11f51ffb16a074a795f24162fe749fa314efb4a34796f157a3",
          "updated": 2019-10-10T12:00:00.000Z,
          "width": 800,
        }
      }
      key="e01acebbe41fad11f51ffb16a074a795f24162fe749fa314efb4a34796f157a3"
    />
    <ImageThumb
      active={false}
      image={
        Object {
          "created": 2019-12-10T12:00:00.000Z,
          "filename": "some-other-image.jpg",
          "format": "png",
          "gallery": Object {
            "id": "8af7b7bf167ff1219db564a03d9c16d9590d7b86259e2844dfd9a04bd3a039ac",
          },
          "height": 1080,
          "id": "next-id",
          "updated": 2019-12-12T12:00:00.000Z,
          "width": 1920,
        }
      }
      key="next-id"
    />
  </div>
  <Hint
    className="GalleryFilmroll__hint"
  />
</section>
`;
